# This file may be used to create an environment using:
# $ conda create --name <env> --file <this file>
# platform: linux-64
_libgcc_mutex=0.1=conda_forge
_openmp_mutex=4.5=1_gnu
alabaster=0.7.12=pypi_0
alsa-lib=1.2.7.2=h166bdaf_0
anyio=3.6.2=pyhd8ed1ab_0
argon2-cffi=21.3.0=pyhd8ed1ab_0
argon2-cffi-bindings=21.2.0=py310h5764c6d_3
argparse=1.4.0=pypi_0
asttokens=2.2.0=pyhd8ed1ab_0
atomizer=1.0=he4074f3_0
attr=2.5.1=h166bdaf_1
attrs=22.1.0=pyh71513ae_1
babel=2.9.1=pypi_0
backcall=0.2.0=pyh9f0ad1d_0
backports=1.0=pyhd8ed1ab_3
backports.functools_lru_cache=1.6.4=pyhd8ed1ab_0
beautifulsoup4=4.11.1=pyha770c72_0
bionetgen=2.5.1=hc8acba8_1
bleach=5.0.1=pyhd8ed1ab_0
brotli=1.0.9=h7f98852_6
brotli-bin=1.0.9=h7f98852_6
bzip2=1.0.8=h7f98852_4
ca-certificates=2022.9.24=ha878542_0
certifi=2022.9.24=pyhd8ed1ab_0
cffi=1.15.1=py310h255011f_2
charset-normalizer=2.0.11=pypi_0
comm=0.1.1=pyhd8ed1ab_0
cycler=0.11.0=pypi_0
cython=0.29.24=pypi_0
dbus=1.13.6=h5008d03_3
deap=1.3.1=pypi_0
debugpy=1.6.4=py310hd8f1fbe_0
decorator=5.1.1=pyhd8ed1ab_0
defusedxml=0.7.1=pyhd8ed1ab_0
docutils=0.17.1=pypi_0
entrypoints=0.4=pyhd8ed1ab_0
et-xmlfile=1.1.0=pypi_0
executing=1.2.0=pyhd8ed1ab_0
expat=2.5.0=h27087fc_0
fftw=3.3.10=nompi_hf0379b8_105
flit-core=3.8.0=pyhd8ed1ab_0
font-ttf-dejavu-sans-mono=2.37=hab24e00_0
font-ttf-inconsolata=3.000=h77eed37_0
font-ttf-source-code-pro=2.038=h77eed37_0
font-ttf-ubuntu=0.83=hab24e00_0
fontconfig=2.14.1=hc2a2eb6_0
fonts-conda-ecosystem=1=0
fonts-conda-forge=1=0
fonttools=4.28.2=py310h6acc77f_0
freetype=2.12.1=hca18f0e_0
gettext=0.21.1=h27087fc_0
glib=2.74.1=h6239696_1
glib-tools=2.74.1=h6239696_1
gmp=6.2.1=h58526e2_0
gmpy2=2.1.0rc1=py310h92f7908_0
greenlet=1.1.2=pypi_0
gst-plugins-base=1.20.3=h57caac4_1
gstreamer=1.20.3=hd4edc92_1
icu=70.1=h27087fc_0
idna=3.3=pypi_0
imagesize=1.3.0=pypi_0
importlib-metadata=5.1.0=pyha770c72_0
importlib_resources=5.10.0=pyhd8ed1ab_0
ipykernel=6.18.2=pyh210e3f2_0
ipython=8.6.0=pyh41d4057_1
ipython_genutils=0.2.0=py_1
ipywidgets=8.0.2=pyhd8ed1ab_1
jack=1.9.21=h2a1e645_0
jbig=2.1=h7f98852_2003
jedi=0.18.2=pyhd8ed1ab_0
jinja2=3.0.3=pypi_0
joblib=1.1.0=pypi_0
jpeg=9e=h166bdaf_2
jsonschema=4.17.1=pyhd8ed1ab_0
jupyter=1.0.0=py310hff52083_7
jupyter_client=7.4.7=pyhd8ed1ab_0
jupyter_console=6.4.4=pyhd8ed1ab_0
jupyter_core=5.1.0=py310hff52083_0
jupyter_server=1.23.3=pyhd8ed1ab_0
jupyterlab_pygments=0.2.2=pyhd8ed1ab_0
jupyterlab_widgets=3.0.3=pyhd8ed1ab_0
keyutils=1.6.1=h166bdaf_0
kiwisolver=1.3.2=py310h91b1402_1
krb5=1.19.3=h3790be6_0
lame=3.100=h166bdaf_1003
lcms2=2.12=hddcbb42_0
ld_impl_linux-64=2.36.1=hea4e1c9_2
lerc=3.0=h9c3ff4c_0
libblas=3.9.0=12_linux64_openblas
libbrotlicommon=1.0.9=h7f98852_6
libbrotlidec=1.0.9=h7f98852_6
libbrotlienc=1.0.9=h7f98852_6
libcap=2.66=ha37c62d_0
libcblas=3.9.0=12_linux64_openblas
libclang=14.0.6=default_hc1a23ef_0
libclang13=14.0.6=default_h31cde19_0
libcups=2.3.3=h3e49a29_2
libdb=6.2.32=h9c3ff4c_0
libdeflate=1.8=h7f98852_0
libedit=3.1.20191231=he28a2e2_2
libevent=2.1.10=h9b69904_4
libffi=3.4.2=h7f98852_5
libflac=1.4.2=h27087fc_0
libgcc-ng=12.2.0=h65d4601_19
libgfortran-ng=11.2.0=h69a702a_11
libgfortran5=11.2.0=h5c6108e_11
libglib=2.74.1=h606061b_1
libgomp=12.2.0=h65d4601_19
libiconv=1.17=h166bdaf_0
liblapack=3.9.0=12_linux64_openblas
libllvm14=14.0.6=he0ac6c6_1
libnsl=2.0.0=h7f98852_0
libogg=1.3.4=h7f98852_1
libopenblas=0.3.18=pthreads_h8fe5266_0
libopus=1.3.1=h7f98852_1
libpng=1.6.37=h21135ba_2
libpq=14.5=hd77ab85_1
libsndfile=1.1.0=h27087fc_0
libsodium=1.0.18=h36c2ea0_1
libsqlite=3.40.0=h753d276_0
libstdcxx-ng=12.2.0=h46fd767_19
libtiff=4.3.0=h6f004c6_2
libtool=2.4.6=h9c3ff4c_1008
libudev1=252=h166bdaf_0
libuuid=2.32.1=h7f98852_1000
libvorbis=1.3.7=h9c3ff4c_0
libwebp-base=1.2.1=h7f98852_0
libxcb=1.13=h7f98852_1004
libxkbcommon=1.0.3=he3ba5ed_0
libxml2=2.10.3=h7463322_0
libzlib=1.2.13=h166bdaf_4
lz4-c=1.9.3=h9c3ff4c_1
markupsafe=2.0.1=pypi_0
matplotlib-base=3.5.0=py310h23f4a51_0
matplotlib-inline=0.1.6=pyhd8ed1ab_0
mistune=2.0.4=pyhd8ed1ab_0
mpc=1.2.1=h9f54685_0
mpfr=4.1.0=h9202a9a_1
mpg123=1.30.2=h27087fc_1
mpmath=1.2.1=pypi_0
munkres=1.1.4=pypi_0
mysql-common=8.0.31=haf5c9bc_0
mysql-libs=8.0.31=h28c427c_0
nbclassic=0.4.8=pyhd8ed1ab_0
nbclient=0.7.2=pyhd8ed1ab_0
nbconvert=7.2.5=pyhd8ed1ab_0
nbconvert-core=7.2.5=pyhd8ed1ab_0
nbconvert-pandoc=7.2.5=pyhd8ed1ab_0
nbformat=5.7.0=pyhd8ed1ab_0
ncurses=6.3=h27087fc_1
nest-asyncio=1.5.6=pyhd8ed1ab_0
networkx=2.6.3=pypi_0
nfsim=1.12.1=h809d1ad_0
notebook=6.5.2=pyha770c72_1
notebook-shim=0.2.2=pyhd8ed1ab_0
nspr=4.35=h27087fc_0
nss=3.82=he02c5a1_0
numpy=1.21.4=py310h57288b1_0
numpydoc=1.2=pypi_0
olefile=0.46=pypi_0
openjpeg=2.4.0=hb52868f_1
openpyxl=3.0.9=pypi_0
openssl=1.1.1s=h166bdaf_0
packaging=21.3=pypi_0
pandas=1.3.4=py310hb5077e9_1
pandoc=2.19.2=h32600fe_1
pandocfilters=1.5.0=pyhd8ed1ab_0
parso=0.8.3=pyhd8ed1ab_0
patsy=0.5.3=pyhd8ed1ab_0
pcre2=10.40=hc3806b6_0
pexpect=4.8.0=pyh1a96a4e_2
pickleshare=0.7.5=py_1003
pillow=8.4.0=py310h07f4688_0
pip=21.3.1=pypi_0
pkgutil-resolve-name=1.3.10=pyhd8ed1ab_0
platformdirs=2.5.2=pyhd8ed1ab_1
ply=3.11=py_1
prometheus_client=0.15.0=pyhd8ed1ab_0
prompt-toolkit=3.0.33=pyha770c72_0
prompt_toolkit=3.0.33=hd8ed1ab_0
psutil=5.9.4=py310h5764c6d_0
pthread-stubs=0.4=h36c2ea0_1001
ptyprocess=0.7.0=pyhd3deb0d_0
pulseaudio=14.0=habe0971_10
pure_eval=0.2.2=pyhd8ed1ab_0
pycparser=2.21=pyhd8ed1ab_0
pydoe=0.3.8=pypi_0
pydoe2=1.3.0=pypi_0
pygments=2.11.2=pypi_0
pyparsing=3.0.6=pypi_0
pyqt=5.15.7=py310h29803b5_2
pyqt5-sip=12.11.0=py310hd8f1fbe_2
pyrsistent=0.19.2=py310h5764c6d_0
pysb=1.13.2=pypi_0
python=3.10.8=h257c98d_0_cpython
python-dateutil=2.8.2=pypi_0
python-fastjsonschema=2.16.2=pyhd8ed1ab_0
python_abi=3.10=2_cp310
pytz=2021.3=pypi_0
pyzmq=22.3.0=pypi_0
qt-main=5.15.6=hc525480_0
qtconsole=5.4.0=pyhd8ed1ab_0
qtconsole-base=5.4.0=pyha770c72_0
qtpy=2.3.0=pyhd8ed1ab_0
readline=8.1.2=h0f457ee_0
requests=2.27.1=pypi_0
scikit-learn=1.0.2=pypi_0
scipy=1.7.3=py310hea5193d_0
scoop=0.7.1.1=pypi_0
seaborn=0.12.0=hd8ed1ab_0
seaborn-base=0.12.0=pyhd8ed1ab_0
send2trash=1.8.0=pyhd8ed1ab_0
setuptools=59.4.0=py310hff52083_0
simplepso=2.2.2=pypi_0
sip=6.7.5=py310hd8f1fbe_0
six=1.16.0=pypi_0
smt=1.1.0=pypi_0
sniffio=1.3.0=pyhd8ed1ab_0
snowballstemmer=2.2.0=pypi_0
soupsieve=2.3.2.post1=pyhd8ed1ab_0
sphinx=4.4.0=pypi_0
sphinxcontrib-applehelp=1.0.2=pypi_0
sphinxcontrib-devhelp=1.0.2=pypi_0
sphinxcontrib-htmlhelp=2.0.0=pypi_0
sphinxcontrib-jsmath=1.0.1=pypi_0
sphinxcontrib-qthelp=1.0.3=pypi_0
sphinxcontrib-serializinghtml=1.1.5=pypi_0
stack_data=0.6.2=pyhd8ed1ab_0
statsmodels=0.13.2=py310h7f8727e_0
sympy=1.9=py310hff52083_1
terminado=0.17.0=pyh41d4057_0
threadpoolctl=3.1.0=pypi_0
tinycss2=1.2.1=pyhd8ed1ab_0
tk=8.6.12=h27826a3_0
toml=0.10.2=pyhd8ed1ab_0
tornado=6.2=py310h5764c6d_1
traitlets=5.5.0=pyhd8ed1ab_0
typing_extensions=4.4.0=pyha770c72_0
tzdata=2021e=he74cb21_0
urllib3=1.26.8=pypi_0
wcwidth=0.2.5=pyh9f0ad1d_2
webencodings=0.5.1=py_1
websocket-client=1.4.2=pyhd8ed1ab_0
wheel=0.37.0=pypi_0
widgetsnbextension=4.0.3=pyhd8ed1ab_0
xcb-util=0.4.0=h166bdaf_0
xcb-util-image=0.4.0=h166bdaf_0
xcb-util-keysyms=0.4.0=h166bdaf_0
xcb-util-renderutil=0.3.9=h166bdaf_0
xcb-util-wm=0.4.1=h166bdaf_0
xorg-libxau=1.0.9=h7f98852_0
xorg-libxdmcp=1.1.3=h7f98852_0
xz=5.2.6=h166bdaf_0
zeromq=4.3.4=h9c3ff4c_1
zipp=3.11.0=pyhd8ed1ab_0
zlib=1.2.13=h166bdaf_4
zstd=1.5.2=h6239696_4
